# 3ds Max Wavefront OBJ Exporter v0.97b - (c)2007 guruware
# File Created: 23.11.2013 13:06:42

mtllib house_01_2nd_floor.mtl

#
# object house_01_2nd_floor
#

v  -24.6501 15.7819 10.8157
v  -20.6597 15.7530 10.6644
v  -19.8166 15.7459 14.4582
v  -23.6986 15.7741 14.6038
v  -22.3302 10.0753 15.2712
v  -23.0498 10.1046 12.1875
v  -19.4378 10.1123 15.1623
v  -20.0911 10.1435 12.0750
v  -21.7688 4.8276 15.8416
v  -22.4742 4.6793 12.7786
v  -18.8759 4.7536 15.7453
v  -19.5152 4.6034 12.6792
v  -23.5564 -8.7309 12.8497
v  -22.6712 -7.9968 16.5547
v  -18.7391 -8.2417 16.4293
v  -19.5142 -8.9847 12.7195
v  -22.6043 -0.7484 13.0112
v  -21.8956 -0.4222 16.0677
v  -18.9940 -0.6079 15.9758
v  -19.6362 -0.9398 12.9162
v  -21.5823 2.3658 -13.7666
v  -0.8797 2.3658 -13.7797
v  -0.7769 14.5326 -14.9565
v  -23.2477 14.5326 -14.9560
v  -22.3378 14.5326 -0.3521
v  -23.2476 14.5326 14.2518
v  -21.5821 2.3658 13.0648
v  -20.7401 2.3658 -0.3508
v  -0.3826 2.3658 13.0782
v  -0.5136 -9.8009 13.4223
v  -21.6678 -9.8009 13.3960
v  -21.6682 -9.8009 -14.0894
v  -21.6325 -10.0633 -0.3464
v  -0.2408 14.5326 14.2523
v  -1.0130 -9.8009 -14.1148
v  19.8322 2.7066 -13.4810
v  21.7033 14.9186 -14.6433
v  21.3292 14.9076 -0.0484
v  19.4864 2.6968 -0.0734
v  20.8254 2.7148 13.3573
v  22.7756 14.9278 14.5719
v  20.6489 -9.4819 13.6937
v  19.6515 -9.4894 -13.7987
v  20.1088 -9.7493 -0.0524
v  -25.5678 16.0113 -12.5858
v  -24.6170 15.8167 -16.3692
v  -20.7383 15.6623 -16.2172
v  -21.5807 15.8526 -12.4280
v  -24.2349 10.2346 -13.6360
v  -23.5168 10.0551 -16.7150
v  -20.6248 9.9980 -16.6037
v  -21.2767 10.1772 -13.5211
v  -23.8448 4.7733 -14.0049
v  -23.1348 4.7726 -17.0705
v  -20.2460 4.6040 -16.9672
v  -20.8901 4.6007 -13.8983
v  -25.3838 -8.5840 -13.5314
v  -21.3527 -8.9700 -13.3853
v  -20.5527 -8.4056 -17.1212
v  -24.4741 -8.0321 -17.2619
v  -23.4406 -0.4748 -17.0828
v  -24.1600 -0.6518 -14.0164
v  -20.5470 -0.7554 -16.9793
v  -21.2001 -0.9403 -13.9096
v  23.7560 15.5226 19.2078
v  19.8059 15.6627 18.6386
v  19.6635 15.7997 14.7572
v  23.5060 15.6634 15.3125
v  21.9874 10.0534 14.1310
v  22.1376 9.9641 17.2929
v  19.1265 10.2129 13.7197
v  19.2110 10.1283 16.8733
v  21.3416 4.8533 13.2821
v  21.4750 4.5879 16.4148
v  18.4783 4.9023 12.8544
v  18.5460 4.6378 15.9782
v  22.0471 -8.8493 16.0608
v  21.8752 -7.9729 12.2857
v  17.9790 -8.0503 11.6938
v  18.0415 -8.9310 15.4536
v  21.4408 -0.8316 16.0159
v  21.3097 -0.3886 12.8953
v  18.4344 -0.4506 12.4578
v  18.4995 -0.8966 15.5692
v  23.4373 15.8724 -16.6768
v  22.8195 15.6867 -12.8246
v  18.9398 15.7225 -12.6293
v  19.4491 15.9093 -16.4776
v  21.8149 10.1598 -15.5552
v  21.3663 9.9849 -12.4253
v  18.4766 10.0696 -12.2773
v  18.8589 10.2475 -15.4048
v  21.1904 4.7206 -15.1831
v  20.7575 4.7239 -12.0662
v  17.8663 4.6970 -11.9112
v  18.2330 4.6929 -15.0254
v  22.0204 -8.6905 -15.8665
v  17.9782 -8.8785 -15.6529
v  17.5435 -8.3130 -11.8572
v  21.4755 -8.1320 -12.0664
v  20.8041 -0.5320 -12.1104
v  21.2374 -0.7133 -15.2298
v  17.9025 -0.6705 -11.9558
v  18.2692 -0.8565 -15.0726
v  20.1673 -11.1523 16.6043
v  20.0984 -7.1987 16.0374
v  20.0766 -7.0480 11.4318
v  20.1915 -10.8939 11.9768
v  7.6421 -9.6478 11.6710
v  7.7797 -9.8040 14.4748
v  7.6493 -6.7823 11.2609
v  7.8250 -6.8727 14.0586
v  -0.7563 -9.1847 11.4077
v  -0.9507 -9.3302 14.5615
v  -0.9267 -6.3206 10.9935
v  -1.1254 -6.4006 14.1388
v  -23.0241 -10.2549 15.7021
v  -21.8853 -10.2970 11.8396
v  -21.4921 -6.3972 11.2822
v  -22.6230 -6.2451 15.1306
v  -9.6209 -9.4866 14.7676
v  -9.1423 -9.3371 11.6062
v  -9.4914 -6.4650 11.1946
v  -9.9803 -6.5485 14.3477
v  20.2579 -12.3540 -11.9778
v  20.1398 -8.4004 -12.5365
v  20.0766 -8.2497 -16.4228
v  20.1915 -12.0956 -15.8777
v  7.6421 -10.8495 -16.1835
v  7.7319 -11.0057 -13.0204
v  7.6493 -7.9840 -16.5937
v  7.7408 -8.0744 -13.4390
v  -0.7563 -10.3864 -16.4469
v  -0.9507 -10.5319 -13.2931
v  -0.9267 -7.5223 -16.8611
v  -1.1254 -7.6022 -13.7158
v  -22.3532 -11.5767 -12.1524
v  -21.2324 -11.3706 -16.0150
v  -21.6947 -7.4784 -16.5724
v  -22.8317 -7.5753 -12.7240
v  -9.6209 -10.6883 -13.0869
v  -9.1423 -10.5388 -16.2484
v  -9.4914 -7.6667 -16.6599
v  -9.9803 -7.7502 -13.5069
v  -25.1618 -11.3158 -15.6662
v  -21.9204 -11.2703 -15.5820
v  -21.3055 -7.8249 -15.5370
v  -24.4588 -7.8706 -15.6189
v  -23.4207 -7.7407 -6.1109
v  -23.9480 -10.5411 -6.1748
v  -21.0708 -7.7031 -6.1159
v  -21.5443 -10.5035 -6.1812
v  -23.0159 -7.5591 -0.1245
v  -23.5334 -10.3524 0.0141
v  -20.6666 -7.5177 -0.0030
v  -21.1305 -10.3109 0.1387
v  -24.4971 -11.2539 14.7283
v  -23.8944 -7.8226 13.9449
v  -20.6875 -7.7750 14.0586
v  -21.2002 -11.2064 14.8475
v  -23.6850 -10.5181 6.1942
v  -23.1633 -7.7184 5.8531
v  -20.8079 -7.6804 6.1019
v  -21.2757 -10.4801 6.4504
v  22.0629 -11.9056 15.0903
v  18.9412 -11.0728 14.8123
v  19.1855 -7.5814 14.7823
v  22.2220 -8.3929 15.0527
v  21.8025 -8.0144 6.0643
v  21.6290 -10.8590 6.1176
v  19.5364 -7.4061 5.9288
v  19.3106 -10.2376 5.9801
v  21.8254 -7.7397 0.0678
v  21.6567 -10.5750 -0.0815
v  19.5687 -7.1279 -0.1939
v  19.3482 -9.9501 -0.3495
v  23.3131 -11.6839 -14.9078
v  23.4584 -8.2091 -14.0984
v  20.4012 -7.3826 -14.6183
v  20.1702 -10.8356 -15.4446
v  22.1460 -10.7727 -6.2431
v  22.2996 -7.9301 -5.8918
v  20.0441 -7.3201 -6.2811
v  19.8386 -10.1495 -6.6430
# 184 vertices

vn -0.0111 0.9999 0.0003
vn -0.9580 -0.1234 0.2753
vn -0.9670 -0.0756 0.2628
vn -0.9658 -0.0828 0.2647
vn -0.9569 -0.1243 0.2789
vn 0.0084 0.0777 0.9962
vn 0.0068 0.0736 0.9965
vn 0.0071 0.0738 0.9965
vn 0.0089 0.0775 0.9962
vn 0.9738 0.0122 -0.2516
vn 0.9752 0.0261 -0.2431
vn 0.9748 0.0269 -0.2446
vn 0.9733 0.0109 -0.2539
vn -0.0073 -0.1552 -0.9871
vn -0.0053 -0.1136 -0.9928
vn -0.0061 -0.1110 -0.9931
vn -0.0083 -0.1557 -0.9870
vn -0.9713 -0.0016 0.2628
vn -0.9715 -0.0003 0.2625
vn 0.0066 0.0468 0.9982
vn 0.0066 0.0481 0.9981
vn 0.9763 0.0013 -0.2417
vn 0.9762 0.0027 -0.2420
vn -0.0069 -0.0481 -0.9981
vn -0.0069 -0.0468 -0.9982
vn -0.0677 -0.9425 0.3250
vn -0.0674 -0.9427 0.3246
vn -0.0680 -0.9424 0.3254
vn -0.9727 0.0868 0.2476
vn -0.9728 0.0867 0.2471
vn -0.9725 0.0643 0.2542
vn -0.9724 0.0591 0.2555
vn 0.0072 0.0371 0.9986
vn 0.0067 0.0313 0.9988
vn 0.0067 0.0317 0.9988
vn 0.9756 -0.0010 -0.2450
vn 0.9756 -0.0010 -0.2452
vn 0.9766 -0.0189 -0.2414
vn 0.9765 -0.0157 -0.2418
vn -0.0036 0.0151 -0.9993
vn -0.0037 0.0151 -0.9993
vn -0.0049 -0.0043 -0.9993
vn -0.0050 -0.0057 -0.9993
vn 0.0257 -0.0225 -0.9996
vn 0.0330 -0.0215 -0.9996
vn 0.0344 -0.0602 -0.9980
vn 0.0269 -0.0605 -0.9980
vn -0.9962 -0.0711 0.0271
vn -0.9941 -0.0710 -0.0387
vn -0.9970 -0.0272 -0.0391
vn -0.9995 -0.0182 0.0270
vn -0.0315 -0.0206 0.9996
vn -0.0328 0.0178 0.9997
vn -0.0269 0.0173 0.9997
vn -0.0256 -0.0220 0.9996
vn -0.9994 0.0452 0.0546
vn -0.9969 -0.0271 0.0931
vn -0.9993 0.0614 0.0272
vn -0.9940 -0.0707 0.0926
vn -0.9995 0.0452 -0.0003
vn -0.0243 -0.0601 0.9980
vn -0.0302 -0.0596 0.9980
vn 0.0244 0.0166 -0.9997
vn 0.0315 0.0168 -0.9997
vn 0.0403 -0.0247 -0.9994
vn 0.0417 -0.0605 -0.9979
vn 0.9950 -0.1121 -0.0656
vn 0.9985 -0.0602 -0.0655
vn 0.9933 -0.0694 -0.1310
vn 0.9904 -0.1110 -0.1298
vn -0.0371 -0.0235 0.9995
vn -0.0387 0.0177 0.9996
vn 0.9999 0.0022 -0.0384
vn 0.9988 0.0181 -0.0655
vn 0.9986 -0.0693 0.0000
vn 0.9954 -0.1125 -0.0002
vn 0.9977 0.0017 -0.0930
vn -0.0358 -0.0599 0.9980
vn 0.0389 0.0161 -0.9996
vn 0.0427 0.9959 -0.0676
vn -0.9625 -0.1035 -0.2183
vn -0.9614 -0.1046 -0.2219
vn -0.9686 -0.0655 -0.2096
vn -0.9697 -0.0569 -0.2082
vn 0.0638 0.0414 -0.9982
vn 0.0641 0.0412 -0.9982
vn 0.0625 0.0421 -0.9982
vn 0.0622 0.0423 -0.9982
vn 0.9741 -0.0099 0.2011
vn 0.9736 -0.0111 0.2036
vn 0.9758 0.0083 0.1925
vn 0.9761 0.0062 0.1912
vn -0.0661 -0.1184 0.9919
vn -0.0671 -0.1188 0.9918
vn -0.0632 -0.0790 0.9959
vn -0.0626 -0.0822 0.9957
vn -0.9714 0.0144 -0.2128
vn -0.9713 0.0152 -0.2131
vn 0.0609 0.0221 -0.9990
vn 0.0607 0.0200 -0.9990
vn 0.9764 -0.0141 0.1912
vn 0.9764 -0.0148 0.1914
vn -0.0612 -0.0221 0.9990
vn -0.0610 -0.0200 0.9990
vn -0.1029 -0.9571 -0.2602
vn -0.1031 -0.9570 -0.2606
vn -0.1026 -0.9573 -0.2598
vn -0.9698 0.1039 -0.2039
vn -0.9704 0.0765 -0.2099
vn -0.9703 0.0802 -0.2091
vn -0.9699 0.1038 -0.2034
vn 0.0609 0.0108 -0.9992
vn 0.0601 0.0056 -0.9992
vn 0.0601 0.0049 -0.9992
vn 0.9756 -0.0173 0.1948
vn 0.9760 -0.0327 0.1925
vn 0.9760 -0.0350 0.1924
vn 0.9756 -0.0172 0.1950
vn -0.0547 0.0412 0.9986
vn -0.0572 0.0201 0.9992
vn -0.0569 0.0222 0.9991
vn 0.0230 0.9976 0.0541
vn 0.9837 -0.1835 -0.0990
vn 0.9920 -0.1327 -0.0821
vn 0.9911 -0.1388 -0.0846
vn 0.9832 -0.1843 -0.1029
vn 0.1630 0.1010 -0.9849
vn 0.1646 0.0934 -0.9855
vn 0.1642 0.0939 -0.9855
vn 0.1625 0.1009 -0.9850
vn -0.9978 0.0736 0.0666
vn -0.9975 0.0839 0.0583
vn -0.9975 0.0838 0.0599
vn -0.9978 0.0723 0.0690
vn -0.1638 -0.1785 0.9735
vn -0.1660 -0.1337 0.9805
vn -0.1652 -0.1307 0.9810
vn -0.1627 -0.1791 0.9735
vn 0.9982 -0.0544 -0.0774
vn 0.9983 -0.0517 -0.0768
vn 0.1644 0.0633 -0.9880
vn 0.1644 0.0645 -0.9879
vn -0.9992 0.0533 0.0551
vn -0.9990 0.0561 0.0557
vn -0.1641 -0.0646 0.9879
vn -0.1641 -0.0633 0.9880
vn 0.1089 -0.9310 -0.3555
vn 0.1086 -0.9312 -0.3552
vn 0.1093 -0.9309 -0.3558
vn 0.9983 0.0350 -0.0572
vn 0.9983 0.0348 -0.0567
vn 0.9990 0.0129 -0.0649
vn 0.9991 0.0067 -0.0667
vn 0.1637 0.0536 -0.9887
vn 0.1642 0.0478 -0.9889
vn 0.1641 0.0482 -0.9889
vn -0.9991 0.0516 0.0586
vn -0.9991 0.0517 0.0587
vn -0.9997 0.0334 0.0537
vn -0.9996 0.0372 0.0545
vn -0.1664 -0.0013 0.9899
vn -0.1663 -0.0013 0.9899
vn -0.1655 -0.0208 0.9897
vn -0.1654 -0.0222 0.9897
vn -0.0063 0.9966 0.0804
vn 0.9764 -0.1760 0.1227
vn 0.9757 -0.1770 0.1264
vn 0.9836 -0.1332 0.1144
vn 0.9849 -0.1232 0.1131
vn 0.0220 0.0348 0.9980
vn 0.0216 0.0347 0.9981
vn 0.0233 0.0364 0.9979
vn 0.0235 0.0365 0.9979
vn -0.9905 0.0636 -0.1057
vn -0.9902 0.0624 -0.1083
vn -0.9909 0.0752 -0.0974
vn -0.9912 0.0743 -0.0960
vn -0.0214 -0.1121 -0.9923
vn -0.0205 -0.1126 -0.9923
vn -0.0235 -0.0734 -0.9959
vn -0.0241 -0.0764 -0.9956
vn 0.9893 -0.0468 0.1187
vn 0.9893 -0.0458 0.1189
vn 0.0243 0.0171 0.9984
vn 0.0244 0.0152 0.9984
vn -0.9922 0.0473 -0.0968
vn -0.9922 0.0464 -0.0970
vn -0.0240 -0.0171 -0.9984
vn -0.0241 -0.0152 -0.9984
vn 0.0956 -0.9671 0.2397
vn 0.0959 -0.9670 0.2400
vn 0.0953 -0.9672 0.2393
vn 0.9890 0.0428 0.1107
vn 0.9895 0.0154 0.1164
vn 0.9894 0.0189 0.1157
vn 0.9890 0.0427 0.1103
vn 0.0240 0.0059 0.9986
vn 0.0246 0.0005 0.9986
vn 0.0246 -0.0000 0.9985
vn -0.9919 0.0439 -0.1005
vn -0.9924 0.0285 -0.0983
vn -0.9924 0.0263 -0.0982
vn -0.9918 0.0440 -0.1006
vn -0.0285 0.0466 -0.9973
vn -0.0267 0.0254 -0.9981
vn -0.0269 0.0274 -0.9981
vn 1.0000 0.0019 -0.0247
vn 1.0001 -0.0035 -0.0316
vn 1.0000 0.0002 -0.0269
vn 0.9999 0.0057 -0.0198
vn -0.1252 -0.9857 -0.0850
vn -0.0891 -0.9908 -0.0800
vn -0.0949 -0.9900 -0.0810
vn -0.1254 -0.9856 -0.0861
vn 0.0373 -0.0876 -0.9960
vn 0.0437 -0.0885 -0.9958
vn 0.0431 -0.0884 -0.9958
vn 0.0372 -0.0874 -0.9960
vn 0.0086 0.9982 0.0516
vn 0.0310 0.9976 0.0473
vn 0.0351 0.9974 0.0471
vn 0.0084 0.9982 0.0520
vn -0.1728 0.0881 0.9853
vn -0.0969 0.0889 0.9935
vn -0.0900 0.0888 0.9939
vn -0.1731 0.0876 0.9853
vn -0.0049 -0.9968 -0.0757
vn -0.0020 -0.9968 -0.0761
vn 0.0280 -0.0892 -0.9959
vn 0.0293 -0.0892 -0.9959
vn 0.0029 0.9988 0.0423
vn 0.0059 0.9988 0.0424
vn -0.0097 0.0891 0.9957
vn -0.0097 0.0895 0.9957
vn -0.9537 0.0506 -0.2746
vn -0.9538 0.0508 -0.2743
vn -0.9537 0.0504 -0.2747
vn -0.9536 0.0503 -0.2750
vn 0.1142 -0.9948 0.0297
vn 0.1109 -0.9946 0.0429
vn 0.0959 -0.9954 -0.0570
vn 0.0888 -0.9953 -0.0676
vn 0.0203 -0.0879 -0.9959
vn 0.0204 -0.0876 -0.9960
vn 0.0139 -0.0891 -0.9958
vn 0.0141 -0.0893 -0.9958
vn -0.0073 0.9990 -0.0418
vn -0.0124 0.9981 -0.0612
vn -0.0214 0.9994 0.0343
vn -0.0123 0.9990 0.0445
vn 0.0330 0.0851 0.9944
vn 0.0339 0.0830 0.9945
vn 0.0124 0.0895 0.9950
vn 0.0111 0.0907 0.9950
vn 0.9998 0.0036 -0.0432
vn -0.1288 -0.9842 -0.0948
vn -0.0887 -0.9913 -0.0733
vn -0.0936 -0.9906 -0.0753
vn -0.1295 -0.9837 -0.0988
vn 0.0089 0.9978 0.0587
vn 0.0337 0.9976 0.0432
vn 0.0358 0.9974 0.0448
vn 0.0081 0.9977 0.0614
vn -0.0919 0.0870 0.9940
vn -0.0718 0.0886 0.9949
vn -0.0699 0.0883 0.9950
vn -0.0922 0.0865 0.9940
vn -0.0025 -0.9969 -0.0753
vn 0.0034 0.9988 0.0420
vn -0.0293 0.0890 0.9959
vn -0.0280 0.0890 0.9959
vn -0.9477 -0.0876 -0.2771
vn -0.9478 -0.0874 -0.2769
vn -0.9476 -0.0877 -0.2773
vn -0.9475 -0.0879 -0.2776
vn 0.1254 -0.9927 -0.0579
vn 0.1253 -0.9927 -0.0572
vn 0.0925 -0.9951 -0.0666
vn 0.0844 -0.9956 -0.0683
vn 0.0187 -0.0889 -0.9958
vn 0.0133 -0.0893 -0.9957
vn 0.0135 -0.0893 -0.9957
vn 0.0004 0.9986 0.0474
vn 0.0005 0.9986 0.0477
vn -0.0261 0.9990 0.0428
vn -0.0212 0.9990 0.0433
vn 0.0316 0.0919 0.9939
vn 0.0127 0.0908 0.9949
vn 0.0120 0.0908 0.9949
vn 0.0499 0.0047 -0.9995
vn -0.9859 0.1412 0.1408
vn -0.9895 0.1347 0.1134
vn -0.9890 0.1362 0.1168
vn -0.9853 0.1441 0.1421
vn -0.0437 0.9995 -0.0189
vn -0.0458 0.9990 -0.0335
vn -0.0455 0.9991 -0.0318
vn -0.0433 0.9995 -0.0188
vn 0.9938 -0.1281 -0.0518
vn 0.9936 -0.1233 -0.0710
vn 0.9934 -0.1245 -0.0724
vn 0.9936 -0.1299 -0.0506
vn 0.0378 -0.9914 0.1288
vn 0.0437 -0.9955 0.0900
vn 0.0433 -0.9960 0.0849
vn 0.0367 -0.9913 0.1292
vn -0.9930 0.1351 0.0495
vn -0.9931 0.1349 0.0483
vn -0.0491 0.9995 0.0014
vn -0.0487 0.9995 -0.0042
vn 0.9945 -0.1226 -0.0484
vn 0.9944 -0.1229 -0.0496
vn 0.0481 -0.9995 0.0043
vn 0.0486 -0.9995 -0.0013
vn -0.0653 0.1446 0.9887
vn -0.0649 0.1443 0.9887
vn -0.0651 0.1444 0.9887
vn -0.0655 0.1447 0.9886
vn -0.9912 0.1200 -0.0608
vn -0.9918 0.1163 -0.0587
vn -0.9924 0.1284 -0.0319
vn -0.9924 0.1313 -0.0270
vn -0.0466 0.9994 0.0196
vn -0.0459 0.9994 0.0194
vn -0.0503 0.9990 0.0322
vn -0.0506 0.9990 0.0311
vn 0.9950 -0.1177 -0.0472
vn 0.9954 -0.1141 -0.0448
vn 0.9949 -0.1212 -0.0269
vn 0.9946 -0.1233 -0.0319
vn 0.0541 -0.9898 -0.1387
vn 0.0521 -0.9897 -0.1395
vn 0.0563 -0.9950 -0.0934
vn 0.0570 -0.9954 -0.0879
vn -0.1058 0.0102 0.9966
vn 0.9982 -0.0475 -0.0823
vn 0.9992 -0.0544 -0.0510
vn 0.9992 -0.0527 -0.0554
vn 0.9982 -0.0444 -0.0837
vn 0.3555 0.9269 0.0350
vn 0.3564 0.9258 0.0486
vn 0.3562 0.9260 0.0470
vn 0.3551 0.9271 0.0348
vn -0.9985 0.0619 -0.0120
vn -0.9989 0.0664 0.0065
vn -0.9989 0.0651 0.0078
vn -0.9986 0.0600 -0.0133
vn -0.3407 -0.9206 -0.1476
vn -0.3499 -0.9229 -0.1070
vn -0.3500 -0.9237 -0.1010
vn -0.3396 -0.9210 -0.1480
vn 0.9987 -0.0548 0.0160
vn 0.9986 -0.0551 0.0172
vn 0.3614 0.9253 0.0148
vn 0.3608 0.9254 0.0197
vn -0.9981 0.0673 -0.0170
vn -0.9981 0.0670 -0.0158
vn -0.3603 -0.9256 -0.0197
vn -0.3610 -0.9255 -0.0148
vn 0.2319 0.1301 -0.9690
vn 0.2315 0.1299 -0.9691
vn 0.2318 0.1300 -0.9691
vn 0.2322 0.1302 -0.9689
vn 0.9881 -0.0624 0.1229
vn 0.9881 -0.0630 0.1226
vn 0.9920 -0.0593 0.0947
vn 0.9928 -0.0584 0.0888
vn 0.3626 0.9251 -0.0041
vn 0.3626 0.9252 -0.0041
vn 0.3645 0.9244 -0.0153
vn 0.3644 0.9244 -0.0142
vn -0.9981 0.0652 -0.0189
vn -0.9981 0.0650 -0.0187
vn -0.9968 0.0670 -0.0398
vn -0.9971 0.0669 -0.0365
vn -0.3774 -0.9135 0.1106
vn -0.3724 -0.9191 0.0707
vn -0.3720 -0.9195 0.0675
# 378 vertex normals

vt 0.6251 0.9957 0.0000
vt 0.5087 0.9968 0.0000
vt 0.5061 0.8761 0.0000
vt 0.6210 0.8683 0.0000
vt 0.9818 0.5126 0.0000
vt 0.9818 0.6754 0.0000
vt 0.8585 0.6754 0.0000
vt 0.8575 0.5112 0.0000
vt 0.8590 0.7649 0.0000
vt 0.9818 0.7649 0.0000
vt 0.8585 0.9811 0.0000
vt 0.8585 0.8498 0.0000
vt 0.9818 0.8498 0.0000
vt 0.9818 0.9811 0.0000
vt 0.8585 0.7649 0.0000
vt 0.8590 0.9811 0.0000
vt 0.4941 0.2348 0.0000
vt 0.0099 0.2361 0.0000
vt 0.0089 0.0084 0.0000
vt 0.4925 0.0080 0.0000
vt 0.2671 0.0035 0.0000
vt 0.2688 0.2352 0.0000
vt 0.4945 0.4874 0.0000
vt 0.0129 0.4902 0.0000
vt 0.2672 0.4891 0.0000
# 25 texture coords

g house_01_2nd_floor
usemtl 02___Default
s 1
f 4/4/1 3/3/1 2/2/1 1/1/1 
s 2
f 1/8/5 6/7/4 5/6/3 4/5/2 
s 4
f 4/8/9 5/7/8 7/6/7 3/5/6 
s 2
f 3/5/13 7/10/12 8/9/11 2/8/10 
s 4
f 2/14/17 8/13/16 6/12/15 1/11/14 
s 2
f 6/7/4 10/15/19 9/10/18 5/6/3 
s 4
f 5/7/8 9/15/21 11/10/20 7/6/7 
s 2
f 8/9/11 7/10/12 11/14/23 12/16/22 
s 4
f 6/12/15 8/13/16 12/10/25 10/15/24 
s 1
f 16/2/28 15/3/26 14/4/27 13/1/26 
s 2
f 18/13/32 17/12/31 13/11/30 14/14/29 
s 4
f 19/13/35 18/12/34 14/11/33 15/14/33 
s 2
f 20/9/39 19/10/38 15/5/37 16/8/36 
s 4
f 17/7/43 20/6/42 16/5/41 13/8/40 
s 2
f 9/10/18 10/15/19 17/12/31 18/13/32 
s 4
f 11/10/20 9/15/21 18/12/34 19/13/35 
s 2
f 11/14/23 19/10/38 20/9/39 12/16/22 
s 4
f 12/10/25 20/6/42 17/7/43 10/15/24 
s 1
f 24/20/47 23/19/46 22/18/45 21/17/44 
s 2
f 28/22/51 27/17/50 26/20/49 25/21/48 
s 4
f 27/18/55 31/24/54 30/23/53 29/17/52 
s 2
f 33/25/58 28/22/51 21/18/57 32/24/56 
f 24/19/59 21/18/57 28/22/51 25/21/48 
f 27/17/50 28/22/51 33/25/58 31/23/60 
s 4
f 29/17/52 34/20/62 26/19/61 27/18/55 
s 1
f 35/24/64 32/23/63 21/17/44 22/18/45 
f 22/17/45 23/20/46 37/19/66 36/18/65 
s 2
f 41/19/70 40/18/69 39/22/68 38/21/67 
s 4
f 30/24/53 42/23/72 40/17/71 29/18/52 
s 2
f 36/17/75 39/22/68 44/25/74 43/23/73 
f 39/22/68 36/17/75 37/20/76 38/21/67 
f 44/25/74 39/22/68 40/18/69 42/24/77 
s 4
f 41/20/78 34/19/62 29/18/52 40/17/71 
s 1
f 36/18/65 43/24/79 35/23/64 22/17/45 
f 48/2/80 47/3/80 46/4/80 45/1/80 
s 2
f 50/6/84 49/7/83 45/8/82 46/5/81 
s 4
f 51/6/88 50/7/87 46/8/86 47/5/85 
s 2
f 52/9/92 51/10/91 47/5/90 48/8/89 
s 4
f 49/12/96 52/13/95 48/14/94 45/11/93 
s 2
f 54/10/98 53/15/97 49/7/83 50/6/84 
s 4
f 55/10/100 54/15/99 50/7/87 51/6/88 
s 2
f 55/14/102 51/10/91 52/9/92 56/16/101 
s 4
f 56/10/104 52/13/95 49/12/96 53/15/103 
s 1
f 60/4/107 59/3/105 58/2/106 57/1/105 
s 2
f 57/11/111 62/12/110 61/13/109 60/14/108 
s 4
f 60/11/112 61/12/114 63/13/113 59/14/112 
s 2
f 59/5/118 63/10/117 64/9/116 58/8/115 
s 4
f 58/5/119 64/6/121 62/7/120 57/8/119 
s 2
f 62/12/110 53/15/97 54/10/98 61/13/109 
s 4
f 61/12/114 54/15/99 55/10/100 63/13/113 
s 2
f 64/9/116 63/10/117 55/14/102 56/16/101 
s 4
f 62/7/120 64/6/121 56/10/104 53/15/103 
s 1
f 68/4/122 67/3/122 66/2/122 65/1/122 
s 2
f 65/8/126 70/7/125 69/6/124 68/5/123 
s 4
f 68/8/130 69/7/129 71/6/128 67/5/127 
s 2
f 67/5/134 71/10/133 72/9/132 66/8/131 
s 4
f 66/14/138 72/13/137 70/12/136 65/11/135 
s 2
f 70/7/125 74/15/140 73/10/139 69/6/124 
s 4
f 69/7/129 73/15/142 75/10/141 71/6/128 
s 2
f 72/9/132 71/10/133 75/14/144 76/16/143 
s 4
f 70/12/136 72/13/137 76/10/146 74/15/145 
s 1
f 80/2/149 79/3/147 78/4/148 77/1/147 
s 2
f 82/13/153 81/12/152 77/11/151 78/14/150 
s 4
f 83/13/156 82/12/155 78/11/154 79/14/154 
s 2
f 84/9/160 83/10/159 79/5/158 80/8/157 
s 4
f 81/7/164 84/6/163 80/5/162 77/8/161 
s 2
f 73/10/139 74/15/140 81/12/152 82/13/153 
s 4
f 75/10/141 73/15/142 82/12/155 83/13/156 
s 2
f 75/14/144 83/10/159 84/9/160 76/16/143 
s 4
f 76/10/146 84/6/163 81/7/164 74/15/145 
s 1
f 88/2/165 87/3/165 86/4/165 85/1/165 
s 2
f 90/6/169 89/7/168 85/8/167 86/5/166 
s 4
f 91/6/173 90/7/172 86/8/171 87/5/170 
s 2
f 92/9/177 91/10/176 87/5/175 88/8/174 
s 4
f 89/12/181 92/13/180 88/14/179 85/11/178 
s 2
f 94/10/183 93/15/182 89/7/168 90/6/169 
s 4
f 95/10/185 94/15/184 90/7/172 91/6/173 
s 2
f 95/14/187 91/10/176 92/9/177 96/16/186 
s 4
f 96/10/189 92/13/180 89/12/181 93/15/188 
s 1
f 100/4/192 99/3/190 98/2/191 97/1/190 
s 2
f 97/11/196 102/12/195 101/13/194 100/14/193 
s 4
f 100/11/197 101/12/199 103/13/198 99/14/197 
s 2
f 99/5/203 103/10/202 104/9/201 98/8/200 
s 4
f 98/5/204 104/6/206 102/7/205 97/8/204 
s 2
f 102/12/195 93/15/182 94/10/183 101/13/194 
s 4
f 101/12/199 94/15/184 95/10/185 103/13/198 
s 2
f 104/9/201 103/10/202 95/14/187 96/16/186 
s 4
f 102/7/205 104/6/206 96/10/189 93/15/188 
s 1
f 108/4/210 107/3/209 106/2/208 105/1/207 
s 2
f 105/8/214 110/7/213 109/6/212 108/5/211 
s 4
f 108/8/218 109/7/217 111/6/216 107/5/215 
s 2
f 107/5/222 111/10/221 112/9/220 106/8/219 
s 4
f 106/14/226 112/13/225 110/12/224 105/11/223 
s 2
f 110/7/213 114/15/228 113/10/227 109/6/212 
s 4
f 109/7/217 113/15/230 115/10/229 111/6/216 
s 2
f 112/9/220 111/10/221 115/14/232 116/16/231 
s 4
f 110/12/224 112/13/225 116/10/234 114/15/233 
s 1
f 120/2/238 119/3/237 118/4/236 117/1/235 
s 2
f 122/13/242 121/12/241 117/11/240 118/14/239 
s 4
f 123/13/246 122/12/245 118/11/244 119/14/243 
s 2
f 124/9/250 123/10/249 119/5/248 120/8/247 
s 4
f 121/7/254 124/6/253 120/5/252 117/8/251 
s 2
f 113/10/227 114/15/228 121/12/241 122/13/242 
s 4
f 115/10/229 113/15/230 122/12/245 123/13/246 
s 2
f 115/14/232 123/10/249 124/9/250 116/16/231 
s 4
f 116/10/234 124/6/253 121/7/254 114/15/233 
s 1
f 128/4/255 127/3/255 126/2/255 125/1/255 
s 2
f 125/8/259 130/7/258 129/6/257 128/5/256 
s 4
f 128/8/218 129/7/217 131/6/216 127/5/215 
s 2
f 127/5/263 131/10/262 132/9/261 126/8/260 
s 4
f 126/14/267 132/13/266 130/12/265 125/11/264 
s 2
f 130/7/258 134/15/268 133/10/227 129/6/257 
s 4
f 129/7/217 133/15/230 135/10/229 131/6/216 
s 2
f 132/9/261 131/10/262 135/14/232 136/16/269 
s 4
f 130/12/265 132/13/266 136/10/271 134/15/270 
s 1
f 140/2/275 139/3/274 138/4/273 137/1/272 
s 2
f 142/13/279 141/12/278 137/11/277 138/14/276 
s 4
f 143/13/282 142/12/281 138/11/280 139/14/280 
s 2
f 144/9/286 143/10/285 139/5/284 140/8/283 
s 4
f 141/7/289 144/6/288 140/5/287 137/8/287 
s 2
f 133/10/227 134/15/268 141/12/278 142/13/279 
s 4
f 135/10/229 133/15/230 142/12/281 143/13/282 
s 2
f 135/14/232 143/10/285 144/9/286 136/16/269 
s 4
f 136/10/271 144/6/288 141/7/289 134/15/270 
s 1
f 148/4/290 147/3/290 146/2/290 145/1/290 
s 2
f 145/8/294 150/7/293 149/6/292 148/5/291 
s 4
f 148/8/298 149/7/297 151/6/296 147/5/295 
s 2
f 147/5/302 151/10/301 152/9/300 146/8/299 
s 4
f 146/14/306 152/13/305 150/12/304 145/11/303 
s 2
f 150/7/293 154/15/308 153/10/307 149/6/292 
s 4
f 149/7/297 153/15/310 155/10/309 151/6/296 
s 2
f 152/9/300 151/10/301 155/14/312 156/16/311 
s 4
f 150/12/304 152/13/305 156/10/314 154/15/313 
s 1
f 160/2/318 159/3/317 158/4/316 157/1/315 
s 2
f 162/13/322 161/12/321 157/11/320 158/14/319 
s 4
f 163/13/326 162/12/325 158/11/324 159/14/323 
s 2
f 164/9/330 163/10/329 159/5/328 160/8/327 
s 4
f 161/7/334 164/6/333 160/5/332 157/8/331 
s 2
f 153/10/307 154/15/308 161/12/321 162/13/322 
s 4
f 155/10/309 153/15/310 162/12/325 163/13/326 
s 2
f 155/14/312 163/10/329 164/9/330 156/16/311 
s 4
f 156/10/314 164/6/333 161/7/334 154/15/313 
s 1
f 168/4/335 167/3/335 166/2/335 165/1/335 
s 2
f 165/8/339 170/7/338 169/6/337 168/5/336 
s 4
f 168/8/343 169/7/342 171/6/341 167/5/340 
s 2
f 167/5/347 171/10/346 172/9/345 166/8/344 
s 4
f 166/14/351 172/13/350 170/12/349 165/11/348 
s 2
f 170/7/338 174/15/353 173/10/352 169/6/337 
s 4
f 169/7/342 173/15/355 175/10/354 171/6/341 
s 2
f 172/9/345 171/10/346 175/14/357 176/16/356 
s 4
f 170/12/349 172/13/350 176/10/359 174/15/358 
s 1
f 180/2/363 179/3/362 178/4/361 177/1/360 
s 2
f 182/13/367 181/12/366 177/11/365 178/14/364 
s 4
f 183/13/371 182/12/370 178/11/369 179/14/368 
s 2
f 184/9/375 183/10/374 179/5/373 180/8/372 
s 4
f 181/7/378 184/6/377 180/5/376 177/8/376 
s 2
f 173/10/352 174/15/353 181/12/366 182/13/367 
s 4
f 175/10/354 173/15/355 182/12/370 183/13/371 
s 2
f 175/14/357 183/10/374 184/9/375 176/16/356 
s 4
f 176/10/359 184/6/377 181/7/378 174/15/358 
# 160 polygons

