# 3ds Max Wavefront OBJ Exporter v0.97b - (c)2007 guruware
# File Created: 23.11.2013 13:20:52

mtllib roof_01.mtl

#
# object roof_01
#

v  -21.1613 -6.8279 13.7045
v  -22.7180 -0.1297 7.2887
v  -0.6208 -0.1297 7.3055
v  -0.5062 -6.8279 13.7300
v  -22.5203 -0.1920 0.1499
v  -24.5392 8.8589 0.1629
v  -0.3885 9.0584 0.0046
v  20.1583 -7.2497 13.4138
v  21.6658 -0.5678 6.9666
v  23.7513 8.3383 -0.1535
v  21.8955 -0.6286 -0.1411
v  -22.8664 -7.2491 16.3419
v  -20.6440 -7.1188 16.4341
v  -20.2261 -9.8073 14.3747
v  -22.4149 -9.9376 14.2884
v  -22.8043 -4.0243 9.3310
v  -23.1767 -1.8247 11.0280
v  -21.1319 -3.9307 9.3968
v  -21.4833 -1.7311 11.0976
v  -24.1483 4.9817 0.1815
v  -24.8673 9.1847 0.1922
v  -23.8674 3.7856 5.6118
v  -23.5020 1.5898 3.9372
v  -21.7826 1.6877 3.9964
v  -22.0767 5.1699 0.1662
v  -22.1274 3.8836 5.6747
v  -22.5922 9.3976 0.1751
v  -24.4122 -3.9395 17.4649
v  -21.2423 -4.0081 17.6358
v  -20.7618 -8.8625 16.9080
v  -23.8454 -8.7940 16.7435
v  -22.8146 -8.9768 6.9335
v  -23.2556 -5.0012 7.1678
v  -20.5393 -9.0277 7.0613
v  -20.9282 -5.0518 7.3000
v  -22.4277 -9.2193 0.1568
v  -22.8594 -5.2531 0.1615
v  -20.1532 -9.2751 0.1409
v  -20.5329 -5.3091 0.1451
v  22.8508 -4.4109 17.1314
v  22.3797 -9.2678 16.4225
v  19.2898 -9.2727 16.6301
v  19.6744 -4.4158 17.3474
v  22.0801 -5.4559 6.8493
v  21.7094 -9.4336 6.6244
v  19.4294 -9.4374 6.7842
v  19.7478 -5.4595 7.0144
v  21.9410 -5.7027 -0.1413
v  21.5740 -9.6709 -0.1388
v  19.3000 -9.6797 -0.1239
v  19.6149 -5.7116 -0.1261
v  -26.4135 10.0578 2.2985
v  -10.7810 9.4186 1.4740
v  -10.4389 7.0259 1.5090
v  -25.3702 7.1360 2.3860
v  -26.3059 10.1485 0.1203
v  -10.6451 9.5275 0.0515
v  9.7270 9.4044 1.6644
v  9.3971 7.0119 1.6947
v  26.0404 10.0232 2.1142
v  25.0124 7.1023 2.1539
v  9.5238 9.5348 -0.0408
v  25.8257 10.1666 -0.1084
v  9.1926 7.1453 -0.0397
v  -10.3010 7.1381 0.0505
v  20.2215 -4.9327 16.3275
v  20.4286 -5.8086 13.2804
v  19.5465 -9.8606 13.8687
v  19.3472 -9.0070 16.8324
v  7.4569 -9.4218 15.8763
v  7.7409 -6.0910 15.4404
v  7.6119 -10.0518 13.6897
v  7.9011 -6.7343 13.2033
v  -0.7567 -9.7180 15.5552
v  -0.7510 -6.3974 15.1124
v  -0.7759 -10.3519 13.3703
v  -0.7709 -7.0448 12.8772
v  -21.7003 -5.0959 15.7279
v  -20.8412 -9.1660 16.2485
v  -21.0929 -10.0214 13.2782
v  -21.9621 -5.9737 12.6740
v  -9.2379 -6.1574 15.1966
v  -8.9656 -9.4868 15.6377
v  -9.1592 -10.1182 13.4459
v  -9.4381 -6.8021 12.9543
v  -21.1261 -6.4773 0.1410
v  20.6090 -6.9030 -0.1324
v  -24.8613 9.1575 0.1648
v  -24.1440 4.9626 0.1602
v  -22.0745 5.1522 0.1467
v  -22.5892 9.3724 0.1499
v  -22.4279 -9.2189 0.1473
v  -22.8596 -5.2527 0.1500
v  -20.1533 -9.2748 0.1324
v  -20.5331 -5.3087 0.1348
v  -25.2591 7.2311 0.1144
v  24.7968 7.2488 -0.1045
v  -20.6327 -6.8304 -13.4255
v  0.0288 -6.8304 -13.7216
v  -0.3363 -0.1311 -7.2944
v  -22.4398 -0.1311 -6.9880
v  20.6862 -7.2522 -13.6762
v  21.9428 -0.5692 -7.2475
v  -22.2354 -7.2522 -16.0415
v  -21.8638 -9.9402 -13.9932
v  -19.6710 -9.8099 -14.1082
v  -20.0088 -7.1218 -16.1628
v  -22.7528 -1.8267 -10.7225
v  -22.4465 -4.0260 -9.0298
v  -20.7711 -3.9324 -9.1176
v  -21.0563 -1.7331 -10.8143
v  -24.1475 4.9817 0.1391
v  -23.3547 1.5891 -3.6259
v  -23.6548 3.7846 -5.2963
v  -24.8663 9.1847 0.1374
v  -21.6325 1.6870 -3.7076
v  -22.0760 5.1699 0.1271
v  -21.9119 3.8825 -5.3820
v  -22.5912 9.3976 0.1247
v  -23.7377 -3.9428 -17.1491
v  -23.1988 -8.7970 -16.4346
v  -20.1080 -8.8656 -16.6395
v  -20.5603 -4.0114 -17.3615
v  -22.9821 -5.0025 -6.8644
v  -22.5502 -8.9781 -6.6356
v  -20.2694 -9.0289 -6.7932
v  -20.6490 -5.0532 -7.0271
v  -22.8590 -5.2531 0.1384
v  -22.4273 -9.2193 0.1378
v  -20.1528 -9.2751 0.1239
v  -20.5325 -5.3091 0.1244
v  23.5243 -4.4141 -17.4305
v  20.3555 -4.4190 -17.6050
v  19.9429 -9.2758 -16.8821
v  23.0254 -9.2709 -16.7149
v  21.9731 -9.4348 -6.9056
v  22.3526 -5.4572 -7.1356
v  19.6987 -9.4387 -7.0355
v  20.0261 -5.4608 -7.2702
v  -26.3159 10.0574 -2.0572
v  -25.2684 7.1356 -2.1564
v  -10.3189 7.0254 -1.4075
v  -10.6640 9.4181 -1.3705
v  9.5399 7.0114 -1.7759
v  9.8674 9.4038 -1.7477
v  26.1950 10.0226 -2.3330
v  25.1695 7.1017 -2.3650
v  20.8630 -4.9357 -16.5919
v  20.0081 -9.0102 -17.0852
v  20.0919 -9.8632 -14.1233
v  20.9514 -5.8111 -13.5467
v  8.3446 -6.0939 -15.5409
v  8.0776 -9.4247 -15.9731
v  8.1473 -10.0543 -13.7878
v  8.4177 -6.7368 -13.3053
v  -0.1622 -6.4002 -15.1015
v  -0.1506 -9.7209 -15.5442
v  -0.2551 -10.3544 -13.3584
v  -0.2693 -7.0472 -12.8655
v  -21.0928 -5.0988 -15.4427
v  -21.4738 -5.9760 -12.3846
v  -20.5808 -10.0239 -13.0001
v  -20.2133 -9.1690 -15.9745
v  -8.3585 -9.4897 -15.5191
v  -8.6480 -6.1602 -15.0745
v  -8.6375 -10.1206 -13.3242
v  -8.9357 -6.8045 -12.8290
v  21.9521 -7.2492 16.3419
v  21.5006 -9.9376 14.2884
v  19.3118 -9.8073 14.3747
v  19.7297 -7.1188 16.4341
v  22.2624 -1.8247 11.0280
v  21.8900 -4.0243 9.3310
v  20.2176 -3.9307 9.3968
v  20.5690 -1.7311 11.0976
v  23.2340 4.9817 0.1814
v  22.5877 1.5898 3.9372
v  22.9531 3.7856 5.6118
v  23.9530 9.1847 0.1922
v  20.8683 1.6877 3.9964
v  21.1624 5.1699 0.1662
v  21.2131 3.8836 5.6747
v  21.6779 9.3976 0.1751
v  23.9470 9.1575 0.1648
v  23.2297 4.9626 0.1602
v  21.1602 5.1522 0.1467
v  21.6749 9.3724 0.1499
v  21.3211 -7.2522 -16.0415
v  19.0945 -7.1219 -16.1629
v  18.7567 -9.8099 -14.1082
v  20.9495 -9.9403 -13.9932
v  21.5322 -4.0260 -9.0298
v  21.8385 -1.8267 -10.7226
v  19.8568 -3.9325 -9.1176
v  20.1420 -1.7331 -10.8144
v  23.2332 4.9817 0.1390
v  23.9520 9.1847 0.1374
v  22.7405 3.7846 -5.2963
v  22.4404 1.5891 -3.6259
v  20.7182 1.6870 -3.7076
v  21.1617 5.1699 0.1271
v  20.9977 3.8825 -5.3820
v  21.6769 9.3976 0.1247
# 203 vertices

vn -0.0341 0.5098 0.8602
vn -0.0335 0.4728 0.8811
vn -0.0201 0.4756 0.8795
vn -0.0196 0.5103 0.8598
vn -0.9883 -0.1343 0.0061
vn -0.9890 -0.1301 0.0065
vn -0.9889 -0.1305 0.0065
vn -0.0348 0.9998 0.0002
vn -0.0057 0.9999 -0.0000
vn -0.0055 0.5096 0.8599
vn -0.0064 0.4726 0.8808
vn 0.9914 -0.1461 0.0066
vn 0.9915 -0.1484 -0.0065
vn 0.9916 -0.1477 -0.0065
vn 0.0234 0.9991 -0.0002
vn -0.0102 -0.4275 0.9038
vn -0.0108 -0.4278 0.9036
vn -0.0092 -0.4270 0.9040
vn -0.0086 -0.4267 0.9042
vn -0.9947 -0.0636 -0.0402
vn -0.9949 -0.0695 -0.0284
vn -0.9949 -0.0767 -0.0134
vn -0.9947 -0.0635 -0.0400
vn 0.1069 -0.4566 -0.8864
vn 0.1062 -0.4809 -0.8735
vn 0.1066 -0.4810 -0.8734
vn 0.1072 -0.4565 -0.8864
vn 0.9947 0.0869 -0.0259
vn 0.9951 0.0806 -0.0081
vn 0.9948 0.0848 -0.0174
vn 0.9947 0.0866 -0.0262
vn -0.1123 0.5146 0.8535
vn -0.1092 0.5107 0.8562
vn -0.1096 0.5108 0.8561
vn -0.1126 0.5147 0.8535
vn -0.9933 -0.0975 0.0066
vn -0.9934 -0.0971 0.0088
vn -0.9939 -0.0940 0.0284
vn -0.9945 -0.0880 0.0140
vn 0.1065 -0.5315 -0.8436
vn 0.1051 -0.5580 -0.8265
vn 0.1057 -0.5578 -0.8266
vn 0.1070 -0.5318 -0.8434
vn 0.9957 0.0702 0.0090
vn 0.9966 0.0652 -0.0089
vn 0.9965 0.0656 -0.0065
vn 0.9955 0.0737 0.0038
vn -0.1022 0.5207 0.8507
vn -0.1016 0.5209 0.8507
vn -0.1062 0.5132 0.8549
vn -0.1064 0.5132 0.8549
vn -0.0769 -0.0945 0.9939
vn -0.0771 -0.0946 0.9939
vn -0.0767 -0.0944 0.9940
vn -0.0766 -0.0944 0.9940
vn -0.9920 -0.0526 -0.0808
vn -0.9943 -0.0552 -0.0539
vn -0.9941 -0.0544 -0.0573
vn -0.9921 -0.0518 -0.0803
vn -0.0138 -0.9991 0.0270
vn -0.0151 -0.9986 0.0413
vn -0.0151 -0.9986 0.0416
vn 0.9978 0.0484 -0.0051
vn 0.9974 0.0481 0.0097
vn 0.9973 0.0481 0.0122
vn 0.9978 0.0482 -0.0050
vn 0.0230 0.9863 -0.1607
vn 0.0196 0.9934 -0.1091
vn 0.0196 0.9933 -0.1098
vn -0.9972 -0.0567 0.0077
vn -0.9972 -0.0565 0.0081
vn -0.0153 -0.9994 0.0001
vn -0.0153 -0.9994 0.0003
vn 0.9978 0.0480 -0.0080
vn 0.9978 0.0481 -0.0079
vn 0.0145 0.9994 -0.0002
vn 0.0405 -0.0949 0.9932
vn 0.0399 -0.0946 0.9933
vn 0.0401 -0.0947 0.9932
vn 0.0407 -0.0950 0.9932
vn 0.9962 -0.0717 -0.0968
vn 0.9963 -0.0712 -0.0965
vn 0.9976 -0.0732 -0.0732
vn 0.9977 -0.0737 -0.0697
vn 0.0257 -0.9996 0.0267
vn 0.0256 -0.9996 0.0267
vn 0.0264 -0.9991 0.0414
vn 0.0264 -0.9991 0.0411
vn -0.9989 0.0676 0.0108
vn -0.9989 0.0677 0.0107
vn -0.9990 0.0668 0.0282
vn -0.9990 0.0668 0.0259
vn -0.0305 0.9868 -0.1606
vn -0.0304 0.9868 -0.1607
vn -0.0289 0.9938 -0.1097
vn -0.0289 0.9939 -0.1090
vn 0.9984 -0.0748 -0.0065
vn 0.9984 -0.0749 -0.0065
vn 0.0281 -0.9999 -0.0001
vn -0.9989 0.0664 0.0065
vn -0.9989 0.0663 0.0065
vn -0.0281 0.9999 0.0001
vn 0.0286 0.0279 0.9979
vn -0.0030 0.0110 0.9995
vn -0.0061 0.0122 0.9996
vn 0.0295 0.0309 0.9978
vn 0.0431 0.9981 -0.0000
vn 0.0067 0.9997 0.0004
vn 0.0071 0.9920 0.1230
vn 0.0418 0.9957 0.0689
vn -0.0443 0.0099 0.9996
vn -0.0430 0.0101 0.9996
vn -0.0536 0.0146 0.9994
vn -0.0538 0.0154 0.9993
vn -0.0573 0.9913 0.1268
vn -0.0489 0.9995 -0.0005
vn -0.0830 0.9979 -0.0015
vn -0.0851 0.9917 0.1114
vn 0.0306 -0.9923 -0.1236
vn 0.0270 -0.9999 0.0002
vn 0.0143 -1.0000 -0.0001
vn 0.0156 -0.9922 -0.1244
vn 0.9839 -0.1428 0.1036
vn 0.9839 -0.1428 0.1038
vn 0.9840 -0.1427 0.1033
vn 0.9840 -0.1426 0.1031
vn -0.1064 0.0877 0.9929
vn -0.0862 0.0845 0.9945
vn -0.0895 0.0852 0.9943
vn -0.1062 0.0883 0.9928
vn 0.0254 -0.9061 0.4224
vn 0.0344 -0.9057 0.4227
vn 0.0342 -0.9057 0.4227
vn 0.0438 -0.0919 -0.9955
vn 0.0546 -0.0922 -0.9952
vn 0.0567 -0.0923 -0.9951
vn 0.0439 -0.0920 -0.9955
vn -0.1081 0.9005 -0.4222
vn -0.0768 0.9033 -0.4227
vn -0.0755 0.9035 -0.4227
vn -0.1081 0.9006 -0.4222
vn -0.0411 0.0825 0.9963
vn -0.0418 0.0827 0.9963
vn 0.0076 -0.9053 0.4245
vn 0.0100 -0.9053 0.4244
vn 0.0421 -0.0923 -0.9955
vn 0.0414 -0.0921 -0.9955
vn -0.0101 0.9056 -0.4239
vn -0.0076 0.9055 -0.4240
vn -0.9810 -0.1099 0.1729
vn -0.9811 -0.1096 0.1722
vn -0.9810 -0.1097 0.1725
vn -0.9809 -0.1100 0.1732
vn 0.0240 0.0849 0.9949
vn 0.0238 0.0853 0.9949
vn 0.0063 0.0834 0.9958
vn 0.0040 0.0830 0.9959
vn -0.0076 -0.9056 0.4236
vn -0.0171 -0.9050 0.4247
vn -0.0161 -0.9050 0.4246
vn 0.0396 -0.0906 -0.9957
vn 0.0397 -0.0905 -0.9957
vn 0.0269 -0.0914 -0.9957
vn 0.0282 -0.0914 -0.9957
vn 0.0909 0.8978 -0.4296
vn 0.0909 0.8978 -0.4295
vn 0.0603 0.9014 -0.4278
vn 0.0572 0.9017 -0.4276
vn -0.9873 -0.1419 0.0176
vn -0.9879 -0.1373 0.0065
vn 0.9920 -0.1445 -0.0065
vn 0.9920 -0.1429 0.0026
vn -0.9933 -0.0970 0.0065
vn -0.9933 -0.0971 0.0065
vn 0.0742 -0.5579 0.8252
vn 0.0743 -0.5587 0.8247
vn 0.1601 -0.9898 -0.0010
vn 0.9965 0.0652 -0.0065
vn -0.0702 0.5218 -0.8488
vn -0.0700 0.5210 -0.8493
vn -0.1644 0.9892 0.0010
vn -0.1645 0.9892 0.0010
vn -0.9972 -0.0567 0.0063
vn -0.9972 -0.0567 0.0067
vn 0.9978 0.0481 -0.0065
vn 0.0145 0.9994 -0.0001
vn -0.9704 -0.2153 -0.0399
vn -0.9704 -0.2155 -0.0396
vn -0.9723 -0.2156 0.0034
vn -0.9723 -0.2155 0.0033
vn 0.0137 -0.9974 -0.0715
vn 0.0127 -1.0000 -0.0001
vn 0.9749 -0.2385 0.0087
vn 0.9684 -0.2363 -0.1465
vn 0.9684 -0.2359 -0.1472
vn 0.9750 -0.2382 0.0094
vn 0.0365 -0.9942 -0.1060
vn 0.0342 -0.9998 0.0010
vn -0.0006 0.5097 -0.8600
vn 0.0139 0.5102 -0.8598
vn 0.0142 0.4755 -0.8795
vn 0.0008 0.4727 -0.8809
vn -0.9883 -0.1343 0.0068
vn 0.0280 0.5095 -0.8601
vn 0.0279 0.4725 -0.8810
vn 0.9920 -0.1461 -0.0196
vn 0.0251 -0.4276 -0.9038
vn 0.0266 -0.4268 -0.9042
vn 0.0260 -0.4271 -0.9041
vn 0.0244 -0.4280 -0.9037
vn -0.9965 -0.0636 0.0533
vn -0.9965 -0.0635 0.0531
vn -0.9957 -0.0767 0.0265
vn -0.9962 -0.0695 0.0415
vn 0.0724 -0.4565 0.8853
vn 0.0726 -0.4564 0.8853
vn 0.0726 -0.4809 0.8723
vn 0.0722 -0.4808 0.8724
vn 0.9939 0.0869 0.0129
vn 0.9939 0.0866 0.0132
vn 0.9944 0.0848 0.0044
vn 0.9951 0.0806 -0.0049
vn -0.0790 0.5145 -0.8523
vn -0.0794 0.5145 -0.8523
vn -0.0763 0.5106 -0.8549
vn -0.0759 0.5106 -0.8550
vn -0.9933 -0.0975 0.0064
vn -0.9942 -0.0880 -0.0010
vn -0.9930 -0.0940 -0.0154
vn -0.9933 -0.0971 0.0042
vn 0.0736 -0.5314 0.8425
vn 0.0742 -0.5317 0.8423
vn 0.0735 -0.5577 0.8255
vn 0.0729 -0.5579 0.8254
vn 0.9963 0.0702 -0.0220
vn 0.9959 0.0737 -0.0168
vn 0.9965 0.0652 -0.0042
vn -0.0690 0.5206 -0.8497
vn -0.0731 0.5131 -0.8538
vn -0.0729 0.5131 -0.8538
vn -0.0684 0.5208 -0.8496
vn -0.0382 -0.0947 -0.9932
vn -0.0379 -0.0945 -0.9932
vn -0.0380 -0.0946 -0.9932
vn -0.0383 -0.0947 -0.9932
vn -0.9954 -0.0526 0.0938
vn -0.9955 -0.0518 0.0934
vn -0.9966 -0.0544 0.0703
vn -0.9967 -0.0552 0.0669
vn -0.0128 -0.9991 -0.0266
vn -0.0127 -0.9991 -0.0266
vn -0.0135 -0.9986 -0.0412
vn -0.0135 -0.9986 -0.0410
vn 0.9978 0.0484 -0.0080
vn 0.9978 0.0482 -0.0081
vn 0.9980 0.0481 -0.0253
vn 0.9980 0.0481 -0.0228
vn 0.0168 0.9863 0.1603
vn 0.0167 0.9863 0.1603
vn 0.0153 0.9933 0.1094
vn 0.0153 0.9934 0.1087
vn -0.9972 -0.0565 0.0052
vn -0.9972 -0.0567 0.0051
vn -0.0153 -0.9994 0.0000
vn 0.9978 0.0480 -0.0051
vn 0.9978 0.0481 -0.0051
vn 0.0792 -0.0950 -0.9940
vn 0.0794 -0.0951 -0.9940
vn 0.0789 -0.0949 -0.9940
vn 0.0787 -0.0948 -0.9940
vn 0.9927 -0.0717 0.0837
vn 0.9952 -0.0737 0.0566
vn 0.9950 -0.0732 0.0602
vn 0.9928 -0.0712 0.0834
vn 0.0267 -0.9996 -0.0269
vn 0.0280 -0.9991 -0.0413
vn 0.0280 -0.9991 -0.0416
vn -0.9987 0.0676 0.0023
vn -0.9983 0.0668 -0.0128
vn -0.9982 0.0668 -0.0151
vn -0.9987 0.0677 0.0024
vn -0.0368 0.9868 0.1609
vn -0.0332 0.9939 0.1093
vn -0.0332 0.9938 0.1099
vn -0.0367 0.9868 0.1609
vn 0.0716 0.0281 -0.9984
vn 0.0724 0.0313 -0.9982
vn 0.0366 0.0119 -0.9997
vn 0.0398 0.0106 -0.9997
vn 0.0446 0.9957 -0.0693
vn 0.0115 0.9921 -0.1221
vn 0.0000 0.0101 -0.9994
vn -0.0012 0.0099 -0.9994
vn -0.0102 0.0146 -0.9991
vn -0.0104 0.0154 -0.9991
vn -0.0525 0.9910 -0.1281
vn -0.0803 0.9915 -0.1126
vn 0.0253 -0.9922 0.1239
vn 0.0105 -0.9922 0.1241
vn 0.9882 -0.1428 -0.1165
vn 0.9883 -0.1426 -0.1160
vn 0.9883 -0.1427 -0.1162
vn 0.9882 -0.1429 -0.1167
vn -0.0678 0.0876 -0.9917
vn -0.0676 0.0882 -0.9917
vn -0.0508 0.0851 -0.9934
vn -0.0475 0.0844 -0.9937
vn 0.0419 -0.9062 -0.4227
vn 0.0418 -0.9062 -0.4227
vn 0.0507 -0.9058 -0.4231
vn 0.0509 -0.9058 -0.4232
vn 0.0051 -0.0918 0.9952
vn 0.0051 -0.0919 0.9952
vn 0.0180 -0.0922 0.9947
vn 0.0158 -0.0921 0.9948
vn -0.1245 0.9006 0.4236
vn -0.1246 0.9007 0.4235
vn -0.0920 0.9035 0.4236
vn -0.0933 0.9034 0.4237
vn -0.0030 0.0825 -0.9960
vn -0.0023 0.0824 -0.9961
vn 0.0266 -0.9054 -0.4245
vn 0.0241 -0.9054 -0.4246
vn 0.0033 -0.0921 0.9952
vn 0.0026 -0.0920 0.9952
vn -0.0266 0.9057 0.4240
vn -0.0241 0.9056 0.4240
vn -0.9745 -0.1099 -0.1601
vn -0.9744 -0.1100 -0.1604
vn -0.9746 -0.1098 -0.1597
vn -0.9747 -0.1097 -0.1594
vn 0.0628 0.0848 -0.9955
vn 0.0429 0.0829 -0.9962
vn 0.0452 0.0832 -0.9961
vn 0.0626 0.0852 -0.9955
vn 0.0089 -0.9057 -0.4235
vn 0.0005 -0.9051 -0.4243
vn -0.0005 -0.9050 -0.4244
vn 0.0008 -0.0905 0.9954
vn -0.0106 -0.0913 0.9956
vn -0.0119 -0.0912 0.9956
vn 0.0009 -0.0904 0.9954
vn 0.0742 0.8979 0.4283
vn 0.0406 0.9018 0.4268
vn 0.0437 0.9015 0.4270
vn -0.9869 -0.1419 -0.0047
vn 0.9923 -0.1429 -0.0156
vn 0.1063 -0.5581 -0.8264
vn 0.1064 -0.5588 -0.8258
vn -0.1033 0.5219 0.8499
vn -0.1032 0.5211 0.8504
vn -0.9724 -0.2154 0.0466
vn -0.9724 -0.2155 0.0463
vn 0.0106 -0.9974 0.0714
vn 0.9576 -0.2349 0.1651
vn 0.9576 -0.2353 0.1644
vn 0.0319 -0.9942 0.1063
vn -0.0173 -0.4273 0.9039
vn -0.0189 -0.4264 0.9043
vn -0.0182 -0.4268 0.9041
vn -0.0166 -0.4277 0.9037
vn 0.9952 -0.0920 -0.0938
vn 0.9952 -0.0920 -0.0937
vn 0.9956 -0.1051 -0.0673
vn 0.9954 -0.0979 -0.0822
vn -0.0415 -0.4566 -0.8866
vn -0.0418 -0.4565 -0.8866
vn -0.0407 -0.4813 -0.8735
vn -0.0404 -0.4810 -0.8737
vn -0.9955 0.1155 0.0281
vn -0.9955 0.1151 0.0279
vn -0.9956 0.1133 0.0366
vn -0.9959 0.1091 0.0459
vn 0.0460 0.5150 0.8536
vn 0.0463 0.5150 0.8536
vn 0.0434 0.5111 0.8562
vn 0.0430 0.5110 0.8562
vn 0.9942 -0.1258 -0.0473
vn 0.9953 -0.1164 -0.0400
vn 0.9947 -0.1225 -0.0256
vn 0.9942 -0.1254 -0.0450
vn -0.0399 -0.5319 -0.8437
vn -0.0405 -0.5323 -0.8434
vn -0.0388 -0.5584 -0.8265
vn -0.0382 -0.5586 -0.8264
vn -0.9963 0.0987 0.0629
vn -0.9962 0.1022 0.0577
vn -0.9971 0.0943 0.0475
vn -0.9971 0.0938 0.0455
vn 0.0357 0.5211 0.8508
vn 0.0401 0.5136 0.8550
vn 0.0399 0.5135 0.8550
vn 0.0351 0.5212 0.8507
vn 0.9942 -0.1253 -0.0473
vn 0.9942 -0.1254 -0.0472
vn -0.0918 -0.5544 0.8281
vn -0.1177 -0.9904 0.0293
vn -0.1159 -0.9905 -0.0257
vn -0.0918 -0.5552 0.8276
vn -0.9971 0.0939 0.0476
vn -0.9971 0.0938 0.0475
vn 0.0906 0.5183 -0.8514
vn 0.1203 0.9899 0.0266
vn 0.1221 0.9897 -0.0301
vn 0.0905 0.5176 -0.8519
vn 0.0403 -0.4276 -0.9038
vn 0.0409 -0.4280 -0.9036
vn 0.0394 -0.4271 -0.9041
vn 0.0387 -0.4268 -0.9042
vn 0.9971 -0.0924 -0.0009
vn 0.9969 -0.0982 -0.0127
vn 0.9964 -0.1054 -0.0277
vn 0.9971 -0.0924 -0.0011
vn -0.0975 -0.4528 0.8876
vn -0.0956 -0.4763 0.8753
vn -0.0960 -0.4781 0.8742
vn -0.0978 -0.4527 0.8876
vn -0.9946 0.1152 0.0667
vn -0.9958 0.1090 0.0490
vn -0.9951 0.1132 0.0583
vn -0.9947 0.1149 0.0670
vn 0.0999 0.5107 -0.8551
vn 0.0971 0.5067 -0.8578
vn 0.0975 0.5071 -0.8575
vn 0.1002 0.5107 -0.8551
vn 0.9942 -0.1254 -0.0495
vn 0.9938 -0.1222 -0.0691
vn 0.9950 -0.1163 -0.0548
vn -0.0932 -0.5269 0.8458
vn -0.0905 -0.5545 0.8282
vn -0.0911 -0.5542 0.8283
vn -0.0938 -0.5291 0.8444
vn -0.9969 0.0989 0.0321
vn -0.9971 0.0938 0.0497
vn -0.9966 0.1023 0.0373
vn 0.0895 0.5172 -0.8522
vn 0.0889 0.5174 -0.8521
vn 0.0939 0.5093 -0.8565
vn 0.0942 0.5097 -0.8563
vn -0.0395 -0.5586 -0.8263
vn -0.0396 -0.5594 -0.8258
vn 0.0368 0.5222 0.8500
vn 0.0367 0.5215 0.8504
# 443 vertex normals

vt 0.9973 0.0015 0.0000
vt 0.9972 0.2476 0.0000
vt 0.5038 0.2483 0.0000
vt 0.5041 0.0030 0.0000
vt 0.1299 0.1341 0.0000
vt 0.2504 0.1330 0.0000
vt 0.2504 0.2960 0.0000
vt 1.0003 0.5000 0.0000
vt 0.5032 0.4958 0.0000
vt 0.3708 0.1341 0.0000
vt 1.0004 0.5056 0.0000
vt 0.5032 0.4886 0.0000
vt 0.5061 0.8761 0.0000
vt 0.5087 0.9968 0.0000
vt 0.6251 0.9957 0.0000
vt 0.6210 0.8683 0.0000
vt 0.9818 0.5126 0.0000
vt 0.9818 0.6754 0.0000
vt 0.8590 0.6754 0.0000
vt 0.8575 0.5112 0.0000
vt 0.9818 0.9811 0.0000
vt 0.8590 0.9811 0.0000
vt 0.8590 0.8498 0.0000
vt 0.9818 0.8498 0.0000
vt 0.8585 0.6754 0.0000
vt 0.8590 0.7649 0.0000
vt 0.9818 0.7649 0.0000
vt 0.8585 0.9811 0.0000
vt 0.8585 0.8498 0.0000
vt 0.8585 0.7649 0.0000
vt 0.8590 0.9808 0.0000
vt 0.9818 0.9808 0.0000
vt 0.9277 0.9811 0.0000
vt 0.8934 0.8498 0.0000
vt 0.8760 0.6754 0.0000
vt 0.8956 0.5116 0.0000
vt 0.8717 0.8498 0.0000
vt 0.8890 0.6754 0.0000
vt 0.0217 0.0130 0.0000
vt 0.2504 0.0193 0.0000
vt 0.4791 0.0130 0.0000
vt 0.8590 0.9804 0.0000
vt 0.9818 0.9804 0.0000
vt 0.8590 0.9805 0.0000
vt 0.9818 0.9805 0.0000
vt 0.9818 0.7650 0.0000
vt 0.8585 0.7651 0.0000
vt 0.8585 0.7650 0.0000
vt 0.8585 0.7648 0.0000
vt 0.9818 0.7648 0.0000
vt 0.5602 0.8724 0.0000
vt 0.5599 0.9963 0.0000
vt 0.9232 0.5119 0.0000
vt 0.5893 0.8704 0.0000
vt 0.5895 0.9960 0.0000
vt 0.8925 0.9811 0.0000
vt 0.3702 0.1341 0.0000
vt 0.4785 0.0130 0.0000
# 58 texture coords

g roof_01
usemtl 02___Default
s 1
f 4/4/4 3/3/3 2/2/2 1/1/1 
s 2
f 6/7/7 5/6/6 2/5/5 
s 1
f 3/3/3 7/9/9 6/8/8 2/2/2 
f 9/3/11 3/2/3 4/1/4 8/4/10 
s 2
f 11/6/14 10/7/13 9/10/12 
s 1
f 3/2/3 9/3/11 10/12/15 7/11/9 
f 15/16/19 14/15/18 13/14/17 12/13/16 
s 2
f 12/20/23 17/19/22 16/18/21 15/17/20 
s 4
f 15/20/27 16/19/26 18/18/25 14/17/24 
s 2
f 14/17/31 18/18/30 19/19/29 13/20/28 
s 4
f 13/17/35 19/18/34 17/19/33 12/20/32 
s 2
f 23/24/39 22/23/38 21/22/37 20/21/36 
s 4
f 23/23/43 20/22/42 25/21/41 24/24/40 
s 2
f 24/24/47 25/21/46 27/22/45 26/23/44 
s 4
f 22/23/51 26/24/50 27/21/49 21/22/48 
s 2
f 17/19/22 22/23/38 23/24/39 16/18/21 
s 4
f 16/19/26 23/23/43 24/24/40 18/18/25 
s 2
f 18/18/30 24/24/47 26/23/44 19/19/29 
s 4
f 19/18/34 26/24/50 22/23/51 17/19/33 
s 1
f 31/16/55 30/13/54 29/14/53 28/15/52 
s 2
f 28/20/59 33/25/58 32/18/57 31/17/56 
s 4
f 31/20/60 32/25/62 34/18/61 30/17/60 
s 2
f 30/17/66 34/27/65 35/26/64 29/20/63 
s 4
f 29/21/67 35/24/69 33/29/68 28/28/67 
s 2
f 33/25/58 37/30/71 36/27/70 32/18/57 
s 4
f 32/25/62 36/30/73 38/27/72 34/18/61 
s 2
f 35/26/64 34/27/65 38/21/75 39/22/74 
s 4
f 33/29/68 35/24/69 39/27/76 37/30/76 
s 1
f 43/14/80 42/13/79 41/16/78 40/15/77 
s 2
f 45/27/84 44/26/83 40/20/82 41/17/81 
s 4
f 46/27/88 45/26/87 41/20/86 42/17/85 
s 2
f 47/26/92 46/27/91 42/17/90 43/20/89 
s 4
f 44/26/96 47/27/95 43/17/94 40/20/93 
s 2
f 49/32/98 48/31/97 44/26/83 45/27/84 
s 4
f 50/32/99 49/31/99 45/26/87 46/27/88 
s 2
f 47/26/92 51/31/101 50/32/100 46/27/91 
s 4
f 44/26/96 48/31/102 51/32/102 47/27/95 
s 2
f 55/17/106 54/27/105 53/26/104 52/20/103 
s 4
f 52/21/110 53/24/109 57/34/108 56/33/107 
s 2
f 54/27/105 59/27/112 58/26/111 53/26/104 
f 58/26/111 59/27/112 61/17/114 60/20/113 
s 4
f 60/17/118 63/36/117 62/35/116 58/18/115 
f 54/18/122 65/38/121 64/37/120 59/24/119 
s 1
f 69/16/126 68/13/125 67/14/124 66/15/123 
s 2
f 66/20/130 71/25/129 70/18/128 69/17/127 
s 4
f 69/20/131 70/25/133 72/18/132 68/17/131 
s 2
f 68/17/137 72/27/136 73/26/135 67/20/134 
s 4
f 67/21/141 73/24/140 71/29/139 66/28/138 
s 2
f 71/25/129 75/30/143 74/27/142 70/18/128 
s 4
f 70/25/133 74/30/145 76/27/144 72/18/132 
s 2
f 73/26/135 72/27/136 76/21/147 77/22/146 
s 4
f 71/29/139 73/24/140 77/27/149 75/30/148 
s 1
f 81/14/153 80/13/152 79/16/151 78/15/150 
s 2
f 83/24/157 82/29/156 78/28/155 79/21/154 
s 4
f 84/24/160 83/29/159 79/28/158 80/21/158 
s 2
f 85/26/164 84/27/163 80/17/162 81/20/161 
s 4
f 82/25/168 85/18/167 81/17/166 78/20/165 
s 2
f 74/27/142 75/30/143 82/29/156 83/24/157 
s 4
f 76/27/144 74/30/145 83/29/159 84/24/160 
s 2
f 76/21/147 84/27/163 85/26/164 77/22/146 
s 4
f 77/27/149 85/18/167 82/25/168 75/30/148 
s 2
f 5/6/6 86/40/170 1/39/169 2/5/5 
f 11/6/14 9/10/12 8/41/172 87/40/171 
f 89/43/174 20/21/36 21/22/37 88/42/173 
s 8
f 89/42/177 90/43/177 25/21/176 20/22/175 
s 2
f 90/43/178 91/44/178 27/22/45 25/21/46 
s 8
f 91/45/182 88/42/181 21/22/180 27/21/179 
s 2
f 93/47/184 92/46/183 36/27/70 37/30/71 
s 4
f 92/48/72 94/46/72 38/27/72 36/30/73 
s 2
f 94/32/185 95/31/185 39/22/74 38/21/75 
s 4
f 95/50/186 93/49/76 37/30/76 39/27/76 
s 1
f 56/52/190 96/51/189 55/13/188 52/14/187 
s 4
f 96/53/192 65/38/121 54/18/122 55/17/191 
s 1
f 63/55/196 60/14/195 61/13/194 97/54/193 
s 4
f 64/37/120 97/56/198 61/21/197 59/24/119 
f 57/34/108 53/24/109 58/18/115 62/35/116 
s 1
f 101/2/202 100/3/201 99/4/200 98/1/199 
s 2
f 5/6/6 6/7/7 101/57/203 
s 1
f 6/8/8 7/9/9 100/3/201 101/2/202 
f 99/1/200 100/2/201 103/3/205 102/4/204 
s 2
f 10/7/13 11/6/14 103/5/206 
s 1
f 10/12/15 103/3/205 100/2/201 7/11/9 
f 107/14/210 106/15/209 105/16/208 104/13/207 
s 2
f 109/18/214 108/19/213 104/20/212 105/17/211 
s 4
f 110/18/218 109/19/217 105/20/216 106/17/215 
s 2
f 111/19/222 110/18/221 106/17/220 107/20/219 
s 4
f 108/19/226 111/18/225 107/17/224 104/20/223 
s 2
f 115/22/230 114/23/229 113/24/228 112/21/227 
s 4
f 117/21/234 112/22/233 113/23/232 116/24/231 
s 2
f 119/22/237 117/21/46 116/24/236 118/23/235 
s 4
f 119/21/241 118/24/240 114/23/239 115/22/238 
s 2
f 113/24/228 114/23/229 108/19/213 109/18/214 
s 4
f 116/24/231 113/23/232 109/19/217 110/18/218 
s 2
f 118/23/235 116/24/236 110/18/221 111/19/222 
s 4
f 114/23/239 118/24/240 111/18/225 108/19/226 
s 1
f 123/14/245 122/13/244 121/16/243 120/15/242 
s 2
f 125/18/249 124/25/248 120/20/247 121/17/246 
s 4
f 126/18/253 125/25/252 121/20/251 122/17/250 
s 2
f 127/26/257 126/27/256 122/17/255 123/20/254 
s 4
f 124/29/261 127/24/260 123/21/259 120/28/258 
s 2
f 129/27/263 128/30/262 124/25/248 125/18/249 
s 4
f 130/27/73 129/30/264 125/25/252 126/18/253 
s 2
f 130/21/266 126/27/256 127/26/257 131/22/265 
s 4
f 131/27/186 127/24/260 124/29/261 128/30/186 
s 1
f 135/16/270 134/13/269 133/14/268 132/15/267 
s 2
f 132/20/274 137/26/273 136/27/272 135/17/271 
s 4
f 135/20/275 136/26/277 138/27/276 134/17/275 
s 2
f 134/17/281 138/27/280 139/26/279 133/20/278 
s 4
f 133/17/285 139/27/284 137/26/283 132/20/282 
s 2
f 137/26/273 48/31/97 49/32/98 136/27/272 
s 4
f 136/26/277 49/31/99 50/32/99 138/27/276 
s 2
f 50/32/100 51/31/101 139/26/279 138/27/280 
s 4
f 51/32/102 48/31/102 137/26/283 139/27/284 
s 2
f 143/26/289 142/27/288 141/17/287 140/20/286 
s 4
f 57/34/108 143/24/291 140/21/290 56/33/107 
s 2
f 145/26/293 144/27/292 142/27/288 143/26/289 
f 147/17/295 144/27/292 145/26/293 146/20/294 
s 4
f 62/35/116 63/36/117 146/17/297 145/18/296 
f 64/37/120 65/38/121 142/18/299 144/24/298 
s 1
f 151/14/303 150/13/302 149/16/301 148/15/300 
s 2
f 153/18/307 152/25/306 148/20/305 149/17/304 
s 4
f 154/18/311 153/25/310 149/20/309 150/17/308 
s 2
f 155/26/315 154/27/314 150/17/313 151/20/312 
s 4
f 152/29/319 155/24/318 151/21/317 148/28/316 
s 2
f 157/27/321 156/30/320 152/25/306 153/18/307 
s 4
f 158/27/323 157/30/322 153/25/310 154/18/311 
s 2
f 158/21/325 154/27/314 155/26/315 159/22/324 
s 4
f 159/27/327 155/24/318 152/29/319 156/30/326 
s 1
f 163/16/331 162/13/330 161/14/329 160/15/328 
s 2
f 160/28/335 165/29/334 164/24/333 163/21/332 
s 4
f 163/28/336 164/29/338 166/24/337 162/21/336 
s 2
f 162/17/342 166/27/341 167/26/340 161/20/339 
s 4
f 161/17/343 167/18/345 165/25/344 160/20/343 
s 2
f 165/29/334 156/30/320 157/27/321 164/24/333 
s 4
f 164/29/338 157/30/322 158/27/323 166/24/337 
s 2
f 167/26/340 166/27/341 158/21/325 159/22/324 
s 4
f 165/25/344 167/18/345 159/27/327 156/30/326 
s 2
f 98/58/346 86/40/170 5/6/6 101/57/203 
f 102/39/347 103/5/206 11/6/14 87/40/171 
f 115/22/230 112/21/227 89/43/174 88/42/173 
s 8
f 117/21/349 90/43/177 89/42/177 112/22/348 
s 2
f 119/22/237 91/44/178 90/43/178 117/21/46 
s 8
f 115/22/351 88/42/181 91/45/182 119/21/350 
s 2
f 129/27/263 92/46/183 93/47/184 128/30/262 
s 4
f 130/27/73 94/46/72 92/48/72 129/30/264 
s 2
f 131/22/265 95/31/185 94/32/185 130/21/266 
s 4
f 128/30/186 93/49/76 95/50/186 131/27/186 
s 1
f 141/13/353 96/51/189 56/52/190 140/14/352 
s 4
f 142/18/299 65/38/121 96/53/192 141/17/354 
s 1
f 147/13/356 146/14/355 63/55/196 97/54/193 
s 4
f 147/21/357 97/56/198 64/37/120 144/24/298 
f 145/18/296 143/24/291 57/34/108 62/35/116 
s 1
f 171/14/361 170/15/360 169/16/359 168/13/358 
s 2
f 173/18/365 172/19/364 168/20/363 169/17/362 
s 4
f 174/18/369 173/19/368 169/20/367 170/17/366 
s 2
f 175/19/373 174/18/372 170/17/371 171/20/370 
s 4
f 172/19/377 175/18/376 171/17/375 168/20/374 
s 2
f 179/22/381 178/23/380 177/24/379 176/21/378 
s 4
f 181/21/385 176/22/384 177/23/383 180/24/382 
s 2
f 183/22/389 181/21/388 180/24/387 182/23/386 
s 4
f 183/21/393 182/24/392 178/23/391 179/22/390 
s 2
f 177/24/379 178/23/380 172/19/364 173/18/365 
s 4
f 180/24/382 177/23/383 173/19/368 174/18/369 
s 2
f 182/23/386 180/24/387 174/18/372 175/19/373 
s 4
f 178/23/391 182/24/392 175/18/376 172/19/377 
s 2
f 179/22/381 176/21/378 185/43/395 184/42/394 
s 8
f 181/21/399 186/43/398 185/42/397 176/22/396 
s 2
f 183/22/389 187/44/401 186/43/400 181/21/388 
s 8
f 179/22/405 184/42/404 187/45/403 183/21/402 
s 1
f 191/16/409 190/15/408 189/14/407 188/13/406 
s 2
f 188/20/413 193/19/412 192/18/411 191/17/410 
s 4
f 191/20/417 192/19/416 194/18/415 190/17/414 
s 2
f 190/17/421 194/18/420 195/19/419 189/20/418 
s 4
f 189/17/425 195/18/424 193/19/423 188/20/422 
s 2
f 199/24/428 198/23/427 197/22/426 196/21/378 
s 4
f 199/23/432 196/22/431 201/21/430 200/24/429 
s 2
f 200/24/435 201/21/388 203/22/434 202/23/433 
s 4
f 198/23/439 202/24/438 203/21/437 197/22/436 
s 2
f 193/19/412 198/23/427 199/24/428 192/18/411 
s 4
f 192/19/416 199/23/432 200/24/429 194/18/415 
s 2
f 194/18/420 200/24/435 202/23/433 195/19/419 
s 4
f 195/18/424 202/24/438 198/23/439 193/19/423 
s 2
f 185/43/395 196/21/378 197/22/426 184/42/394 
s 8
f 185/42/397 186/43/398 201/21/441 196/22/440 
s 2
f 186/43/400 187/44/401 203/22/434 201/21/388 
s 8
f 187/45/403 184/42/404 197/22/443 203/21/442 
# 182 polygons - 4 triangles

